<svg xmlns="http://www.w3.org/2000/svg" xmlns:xlink="http://www.w3.org/1999/xlink" viewBox="0 0 1044.103 1171.103">
  <defs>
    <style>
      .cls-1 {
        fill: url(#linear-gradient);
      }

      .cls-2 {
        opacity: 0.108;
      }

      .cls-3 {
        fill: #fff;
      }

      .cls-4 {
        filter: url(#Rectangle_31);
      }
    </style>
    <linearGradient id="linear-gradient" x1="1.021" y1="0.378" x2="-0.037" y2="0.381" gradientUnits="objectBoundingBox">
      <stop offset="0" stop-color="#006cff"/>
      <stop offset="1" stop-color="#00c4ff"/>
    </linearGradient>
    <filter id="Rectangle_31" x="325.752" y="196.752" width="358" height="760" filterUnits="userSpaceOnUse">
      <feOffset dx="6" dy="2" input="SourceAlpha"/>
      <feGaussianBlur stdDeviation="4" result="blur"/>
      <feFlood flood-opacity="0.161"/>
      <feComposite operator="in" in2="blur"/>
      <feComposite in="SourceGraphic"/>
    </filter>
  </defs>
  <g id="bg-lateral" transform="translate(331.752 206.752)">
    <g class="cls-4" transform="matrix(1, 0, 0, 1, -331.75, -206.75)">
      <rect id="Rectangle_31-2" data-name="Rectangle 31" class="cls-1" width="334" height="736" transform="translate(331.75 206.75)"/>
    </g>
    <g id="Group_29" data-name="Group 29" class="cls-2" transform="translate(-331.752 -206.752)">
      <path id="Path_1" data-name="Path 1" class="cls-3" d="M298.052,596.1,0,298.052,298.052,0,596.1,298.052ZM68.51,298.052,298.052,527.593,527.593,298.052,298.052,68.51Z"/>
    </g>
    <g id="Group_30" data-name="Group 30" class="cls-2" transform="translate(116.248 368.248)">
      <path id="Path_1-2" data-name="Path 1" class="cls-3" d="M298.052,596.1,0,298.052,298.052,0,596.1,298.052ZM68.51,298.052,298.052,527.593,527.593,298.052,298.052,68.51Z"/>
    </g>
  </g>
</svg>
