<svg xmlns="http://www.w3.org/2000/svg" viewBox="0 0 24.546 18.8">
  <defs>
    <style>
      .cls-1, .cls-2 {
        fill: #fff;
      }

      .cls-1 {
        stroke: #fff;
        stroke-width: 0.5px;
      }
    </style>
  </defs>
  <g id="Group_63" data-name="Group 63" transform="translate(0.25 0.25)">
    <path id="Path_67" data-name="Path 67" class="cls-1" d="M21.1,0H2.941A2.943,2.943,0,0,0,0,2.941V15.359A2.943,2.943,0,0,0,2.941,18.3H21.1a2.943,2.943,0,0,0,2.941-2.941V2.947A2.948,2.948,0,0,0,21.1,0Zm1.6,15.359a1.6,1.6,0,0,1-1.6,1.6H2.941a1.6,1.6,0,0,1-1.6-1.6V2.947a1.6,1.6,0,0,1,1.6-1.6H21.1a1.6,1.6,0,0,1,1.6,1.6V15.359Zm0,0"/>
    <path id="Path_68" data-name="Path 68" class="cls-2" d="M54.967,46.357l4.949-4.436a.567.567,0,0,0-.759-.842L52.336,47.2l-1.329-1.187L51,46a.681.681,0,0,0-.094-.078l-5.414-4.844a.567.567,0,0,0-.753.847L49.741,46.4l-4.985,4.666a.569.569,0,0,0-.026.8.569.569,0,0,0,.8.026l5.058-4.734,1.371,1.224a.565.565,0,0,0,.753-.005l1.412-1.266,5.032,4.781a.564.564,0,0,0,.387.157.544.544,0,0,0,.408-.178.569.569,0,0,0-.021-.8Zm0,0" transform="translate(-40.306 -37.34)"/>
  </g>
</svg>
