<svg xmlns="http://www.w3.org/2000/svg" viewBox="0 0 30.014 16.695">
  <defs>
    <style>
      .cls-1 {
        fill: #fff;
        fill-rule: evenodd;
      }
    </style>
  </defs>
  <g id="arrow_x5F_simple_x5F_shock_2_" transform="translate(30.014) rotate(90)">
    <g id="Group_190" data-name="Group 190" transform="translate(0 0)">
      <path id="Path_217" data-name="Path 217" class="cls-1" d="M4.5,15.007,16.132,3.189a1.813,1.813,0,0,0,0-2.626,1.813,1.813,0,0,0-2.626,0L.563,13.694a1.813,1.813,0,0,0,0,2.626L13.506,29.451a1.813,1.813,0,0,0,2.626,0,1.813,1.813,0,0,0,0-2.626Z" transform="translate(0 0)"/>
    </g>
  </g>
</svg>
